{
    "defaultSeverity": "error",
    "extends": [
        "tslint:recommended"
    ],
    "jsRules": {},
    "rules": {
        "interface-name" : [true, "always-prefix"],
        "max-line-length": [false],
        "no-console": [false, "log", "error"],
        "no-var-requires": false,
        "quotemark": [true, "single"],
        "object-literal-sort-keys": false,
        "trailing-comma": false
    },
    "rulesDirectory": []
}
